,Unnamed: 0,email,link
0,0,,
1,1,covid19indianembassy@gmail.com,https://www.eoiriyadh.gov.in/
2,2,riyadh@mea.gov,https://www.eoiriyadh.gov.in/
4,4,clientservices@itseasy.com,https://www.itseasy.com/formfinder/
5,5,bcollins@itseasy.com,https://www.itseasy.com/formfinder/
6,6,accounts@itseasy.com,https://www.itseasy.com/formfinder/
7,7,contact@jadontech.com,https://www.jadontech.com/
8,8,uae@jadontech.com,https://www.jadontech.com/
9,9,timesTags@filterEmpty.0,https://www.nytimes.com/2015/03/29/travel/getting-to-the-front-of-the-visa-line.html?_r=0
10,10,timesTags@filterEmpty.1,https://www.nytimes.com/2015/03/29/travel/getting-to-the-front-of-the-visa-line.html?_r=0
11,11,timesTags@filterEmpty.2,https://www.nytimes.com/2015/03/29/travel/getting-to-the-front-of-the-visa-line.html?_r=0
12,12,timesTags@filterEmpty.3,https://www.nytimes.com/2015/03/29/travel/getting-to-the-front-of-the-visa-line.html?_r=0
13,13,timesTags@filterEmpty.4,https://www.nytimes.com/2015/03/29/travel/getting-to-the-front-of-the-visa-line.html?_r=0
14,14,timesTags@filterEmpty.5,https://www.nytimes.com/2015/03/29/travel/getting-to-the-front-of-the-visa-line.html?_r=0
15,15,timesTags@filterEmpty.6,https://www.nytimes.com/2015/03/29/travel/getting-to-the-front-of-the-visa-line.html?_r=0
16,16,timesTags@filterEmpty.7,https://www.nytimes.com/2015/03/29/travel/getting-to-the-front-of-the-visa-line.html?_r=0
17,17,timesTags@filterEmpty.8,https://www.nytimes.com/2015/03/29/travel/getting-to-the-front-of-the-visa-line.html?_r=0
18,18,timesTags@filterEmpty.9,https://www.nytimes.com/2015/03/29/travel/getting-to-the-front-of-the-visa-line.html?_r=0
19,19,timesTags@filterEmpty.10,https://www.nytimes.com/2015/03/29/travel/getting-to-the-front-of-the-visa-line.html?_r=0
20,20,content@filterEmpty.0,https://www.nytimes.com/2015/03/29/travel/getting-to-the-front-of-the-visa-line.html?_r=0
21,21,content@filterEmpty.1,https://www.nytimes.com/2015/03/29/travel/getting-to-the-front-of-the-visa-line.html?_r=0
22,22,content@filterEmpty.2,https://www.nytimes.com/2015/03/29/travel/getting-to-the-front-of-the-visa-line.html?_r=0
23,23,content@filterEmpty.3,https://www.nytimes.com/2015/03/29/travel/getting-to-the-front-of-the-visa-line.html?_r=0
24,24,content@filterEmpty.4,https://www.nytimes.com/2015/03/29/travel/getting-to-the-front-of-the-visa-line.html?_r=0
25,25,content@filterEmpty.5,https://www.nytimes.com/2015/03/29/travel/getting-to-the-front-of-the-visa-line.html?_r=0
26,26,content@filterEmpty.6,https://www.nytimes.com/2015/03/29/travel/getting-to-the-front-of-the-visa-line.html?_r=0
27,27,content@filterEmpty.7,https://www.nytimes.com/2015/03/29/travel/getting-to-the-front-of-the-visa-line.html?_r=0
28,28,content@filterEmpty.8,https://www.nytimes.com/2015/03/29/travel/getting-to-the-front-of-the-visa-line.html?_r=0
29,29,content@filterEmpty.9,https://www.nytimes.com/2015/03/29/travel/getting-to-the-front-of-the-visa-line.html?_r=0
30,30,content@filterEmpty.10,https://www.nytimes.com/2015/03/29/travel/getting-to-the-front-of-the-visa-line.html?_r=0
31,31,content@filterEmpty.11,https://www.nytimes.com/2015/03/29/travel/getting-to-the-front-of-the-visa-line.html?_r=0
32,32,content@filterEmpty.12,https://www.nytimes.com/2015/03/29/travel/getting-to-the-front-of-the-visa-line.html?_r=0
33,33,content@filterEmpty.13,https://www.nytimes.com/2015/03/29/travel/getting-to-the-front-of-the-visa-line.html?_r=0
34,34,content@filterEmpty.14,https://www.nytimes.com/2015/03/29/travel/getting-to-the-front-of-the-visa-line.html?_r=0
35,35,content@filterEmpty.15,https://www.nytimes.com/2015/03/29/travel/getting-to-the-front-of-the-visa-line.html?_r=0
36,36,content@filterEmpty.16,https://www.nytimes.com/2015/03/29/travel/getting-to-the-front-of-the-visa-line.html?_r=0
37,37,content@filterEmpty.17,https://www.nytimes.com/2015/03/29/travel/getting-to-the-front-of-the-visa-line.html?_r=0
38,38,content@filterEmpty.18,https://www.nytimes.com/2015/03/29/travel/getting-to-the-front-of-the-visa-line.html?_r=0
39,39,content@filterEmpty.19,https://www.nytimes.com/2015/03/29/travel/getting-to-the-front-of-the-visa-line.html?_r=0
40,40,content@filterEmpty.20,https://www.nytimes.com/2015/03/29/travel/getting-to-the-front-of-the-visa-line.html?_r=0
41,41,content@filterEmpty.21,https://www.nytimes.com/2015/03/29/travel/getting-to-the-front-of-the-visa-line.html?_r=0
42,42,content@filterEmpty.22,https://www.nytimes.com/2015/03/29/travel/getting-to-the-front-of-the-visa-line.html?_r=0
43,43,content@filterEmpty.23,https://www.nytimes.com/2015/03/29/travel/getting-to-the-front-of-the-visa-line.html?_r=0
44,44,content@filterEmpty.24,https://www.nytimes.com/2015/03/29/travel/getting-to-the-front-of-the-visa-line.html?_r=0
45,45,content@filterEmpty.25,https://www.nytimes.com/2015/03/29/travel/getting-to-the-front-of-the-visa-line.html?_r=0
46,46,content@filterEmpty.26,https://www.nytimes.com/2015/03/29/travel/getting-to-the-front-of-the-visa-line.html?_r=0
47,47,booksales@columbustravelmedia.com,https://www.worldtravelguide.net/conditions-sales-goods/
51,51,editorial@columbustravelmedia.com,https://www.worldtravelguide.net/privacy-policy/
54,54,ukemb@mofa.gov,https://embassies.mofa.gov.sa/sites/uk/AR/Pages/default.aspx
55,55,privacy@state.gov,https://www.state.gov/privacy-policy/
56,56,socr_direct@state.gov,https://www.state.gov/key-topics-office-of-civil-rights/eeo-no-fear-act-whistleblower-protection-acts/
57,57,20consularharare@state.gov,https://travel.state.gov/content/travel/en/international-travel/International-Travel-Country-Information-Pages/Zimbabwe.html
58,58,consularharare@state.gov,https://travel.state.gov/content/travel/en/international-travel/International-Travel-Country-Information-Pages/Zimbabwe.html
59,59,pangeti@zct.co,https://travel.state.gov/content/travel/en/international-travel/International-Travel-Country-Information-Pages/Zimbabwe.html
60,60,acshanoi@state.gov,https://travel.state.gov/content/travel/en/international-travel/International-Travel-Country-Information-Pages/Vietnam.html
61,61,ACShanoi@state.gov,https://travel.state.gov/content/travel/en/international-travel/International-Travel-Country-Information-Pages/Vietnam.html
62,62,ACSLusaka@state.gov,https://travel.state.gov/content/travel/en/international-travel/International-Travel-Country-Information-Pages/Zambia.html
63,63,ACSBogota@state.gov,https://travel.state.gov/content/travel/en/international-travel/International-Travel-Country-Information-Pages/Venezuela.html
64,64,VenezuelaEmergencyUSC@state.gov,https://travel.state.gov/content/travel/en/international-travel/International-Travel-Country-Information-Pages/Venezuela.html
65,65,amctelaviv@state.gov,https://travel.state.gov/content/travel/en/international-travel/International-Travel-Country-Information-Pages/IsraeltheWestBankandGaza.html?wcmmode=disabled
66,66,JerusalemACS@state.gov,https://travel.state.gov/content/travel/en/international-travel/International-Travel-Country-Information-Pages/IsraeltheWestBankandGaza.html?wcmmode=disabled
67,67,TelAvivACS@state.gov,https://travel.state.gov/content/travel/en/international-travel/International-Travel-Country-Information-Pages/IsraeltheWestBankandGaza.html?wcmmode=disabled
68,68,AMCTelAviv@state.gov,https://travel.state.gov/content/travel/en/international-travel/International-Travel-Country-Information-Pages/IsraeltheWestBankandGaza.html?wcmmode=disabled
69,69,ConsularPortMoresby@state.gov,https://travel.state.gov/content/travel/en/international-travel/International-Travel-Country-Information-Pages/Vanuatu.html
70,70,vanunmis@aol.com,https://travel.state.gov/content/travel/en/international-travel/International-Travel-Country-Information-Pages/Vanuatu.html
71,71,tourism@vanuatu.com,https://travel.state.gov/content/travel/en/international-travel/International-Travel-Country-Information-Pages/Vanuatu.html
72,72,ACSTashkent@state.gov,https://travel.state.gov/content/travel/en/international-travel/International-Travel-Country-Information-Pages/Uzbekistan.html
73,73,SCSLondon@state.gov,https://travel.state.gov/content/travel/en/international-travel/International-Travel-Country-Information-Pages/UnitedKingdom.html
74,74,Info@state.gov,https://travel.state.gov/content/travel/en/international-travel/International-Travel-Country-Information-Pages/UnitedKingdom.html
75,75,ConsularBelfast@state.gov,https://travel.state.gov/content/travel/en/international-travel/International-Travel-Country-Information-Pages/UnitedKingdom.html
76,76,MontevideoACS@state.gov,https://travel.state.gov/content/travel/en/international-travel/International-Travel-Country-Information-Pages/Uruguay.html
77,77,abudhabiacs@state.gov,https://travel.state.gov/content/travel/en/international-travel/International-Travel-Country-Information-Pages/UnitedArabEmirates.html
78,78,DubaiACS@state.gov,https://travel.state.gov/content/travel/en/international-travel/International-Travel-Country-Information-Pages/UnitedArabEmirates.html
79,79,uscitizensrome@state.gov,https://travel.state.gov/content/travel/en/international-travel/International-Travel-Country-Information-Pages/Italy.html.html?wcmmode=disabled
80,80,USUNRome@state.gov,https://travel.state.gov/content/travel/en/international-travel/International-Travel-Country-Information-Pages/Italy.html.html?wcmmode=disabled
81,81,uscitizensflorence@state.gov,https://travel.state.gov/content/travel/en/international-travel/International-Travel-Country-Information-Pages/Italy.html.html?wcmmode=disabled
82,82,uscitizensmilan@state.gov,https://travel.state.gov/content/travel/en/international-travel/International-Travel-Country-Information-Pages/Italy.html.html?wcmmode=disabled
83,83,uscitizensnaples@state.gov,https://travel.state.gov/content/travel/en/international-travel/International-Travel-Country-Information-Pages/Italy.html.html?wcmmode=disabled
84,84,uscitizensgenoa@state.gov,https://travel.state.gov/content/travel/en/international-travel/International-Travel-Country-Information-Pages/Italy.html.html?wcmmode=disabled
85,85,uscitizenspalermo@state.gov,https://travel.state.gov/content/travel/en/international-travel/International-Travel-Country-Information-Pages/Italy.html.html?wcmmode=disabled
86,86,uscitizensvenice@state.gov,https://travel.state.gov/content/travel/en/international-travel/International-Travel-Country-Information-Pages/Italy.html.html?wcmmode=disabled
87,87,kyivacs@state.gov,https://travel.state.gov/content/travel/en/international-travel/International-Travel-Country-Information-Pages/Ukraine.html
88,88,KampalaUScitizen@state.gov,https://travel.state.gov/content/travel/en/international-travel/International-Travel-Country-Information-Pages/Uganda.html
89,89,KampalaUSCitizen@state.gov,https://travel.state.gov/content/travel/en/international-travel/International-Travel-Country-Information-Pages/Uganda.html
90,90,suvaacs@state.gov,https://travel.state.gov/content/travel/en/international-travel/International-Travel-Country-Information-Pages/Tuvalu.html
91,91,SuvaACS@state.gov,https://travel.state.gov/content/travel/en/international-travel/International-Travel-Country-Information-Pages/Tuvalu.html
92,92,acsnassau@state.gov,https://travel.state.gov/content/travel/en/international-travel/International-Travel-Country-Information-Pages/TurksandCaicosIslands.html
93,93,consularashgab@state.gov,https://travel.state.gov/content/travel/en/international-travel/International-Travel-Country-Information-Pages/Turkmenistan.html
94,94,Izmir@state.gov,https://travel.state.gov/content/travel/en/international-travel/International-Travel-Country-Information-Pages/Turkey.html
95,95,tunisacs@state.gov,https://travel.state.gov/content/travel/en/international-travel/International-Travel-Country-Information-Pages/Tunisia.html
96,96,acspos@state.gov,https://travel.state.gov/content/travel/en/international-travel/International-Travel-Country-Information-Pages/TrinidadandTobago.html
99,99,Consularlome@state.gov,https://travel.state.gov/content/travel/en/international-travel/International-Travel-Country-Information-Pages/Togo.html
100,100,ConsularBanjul@state.gov,https://travel.state.gov/content/travel/en/international-travel/International-Travel-Country-Information-Pages/TheGambia.html
101,101,ACSnassau@state.gov,https://travel.state.gov/content/travel/en/international-travel/International-Travel-Country-Information-Pages/Bahamas.html
102,102,acsbkk@state.gov,https://travel.state.gov/content/travel/en/international-travel/International-Travel-Country-Information-Pages/Thailand.html
103,103,acschn@state.gov,https://travel.state.gov/content/travel/en/international-travel/International-Travel-Country-Information-Pages/Thailand.html
104,104,ACSBkk@state.gov,https://travel.state.gov/content/travel/en/international-travel/International-Travel-Country-Information-Pages/Thailand.html
105,105,drsacs@state.gov,https://travel.state.gov/content/travel/en/international-travel/International-Travel-Country-Information-Pages/Tanzania.html
106,106,DRSACS@state.gov,https://travel.state.gov/content/travel/en/international-travel/International-Travel-Country-Information-Pages/Tanzania.html
107,107,ConsDili@state.gov,https://travel.state.gov/content/travel/en/international-travel/International-Travel-Country-Information-Pages/Timor-Leste.html
108,108,dushanbeconsular@state.gov,https://travel.state.gov/content/travel/en/international-travel/International-Travel-Country-Information-Pages/Tajikistan.html
109,109,DushanbeConsular@state.gov,https://travel.state.gov/content/travel/en/international-travel/International-Travel-Country-Information-Pages/Tajikistan.html
110,110,tjusconsulate@mfa.tj,https://travel.state.gov/content/travel/en/international-travel/International-Travel-Country-Information-Pages/Tajikistan.html
111,111,TaipeiACS@state.gov,https://travel.state.gov/content/travel/en/international-travel/International-Travel-Country-Information-Pages/Taiwan.html
112,112,t@state.gov,https://travel.state.gov/content/travel/en/international-travel/International-Travel-Country-Information-Pages/Taiwan.html
113,113,stkacsinfo@state.gov,https://travel.state.gov/content/travel/en/international-travel/International-Travel-Country-Information-Pages/Sweden.html
114,114,USIS_damascus@embassy.mzv,https://travel.state.gov/content/travel/en/international-travel/International-Travel-Country-Information-Pages/SyrianArabRepublic.html
115,115,ACS@state.gov,https://travel.state.gov/content/travel/en/international-travel/International-Travel-Country-Information-Pages/SyrianArabRepublic.html
116,116,SyriaEmergencyUSC@state.gov,https://travel.state.gov/content/travel/en/international-travel/International-Travel-Country-Information-Pages/SyrianArabRepublic.html
117,117,AmmanACS@state.gov,https://travel.state.gov/content/travel/en/international-travel/International-Travel-Country-Information-Pages/SyrianArabRepublic.html
118,118,caparamar@state.gov,https://travel.state.gov/content/travel/en/international-travel/International-Travel-Country-Information-Pages/Suriname.html
119,119,askacs@state.gov,https://travel.state.gov/content/travel/en/international-travel/International-Travel-Country-Information-Pages/Spain.html
120,120,BarcelonaACS@state.gov,https://travel.state.gov/content/travel/en/international-travel/International-Travel-Country-Information-Pages/Spain.html
121,121,malagaconsagency@state.gov,https://travel.state.gov/content/travel/en/international-travel/International-Travel-Country-Information-Pages/Spain.html
122,122,canariasconsagency@state.gov,https://travel.state.gov/content/travel/en/international-travel/International-Travel-Country-Information-Pages/Spain.html
123,123,pmagency@state.gov,https://travel.state.gov/content/travel/en/international-travel/International-Travel-Country-Information-Pages/Spain.html
124,124,sevillaconsagency@state.gov,https://travel.state.gov/content/travel/en/international-travel/International-Travel-Country-Information-Pages/Spain.html
125,125,valenciaconsagency@state.gov,https://travel.state.gov/content/travel/en/international-travel/International-Travel-Country-Information-Pages/Spain.html
126,126,colomboacs@state.gov,https://travel.state.gov/content/travel/en/international-travel/International-Travel-Country-Information-Pages/SriLanka.html
127,127,consular@slembassyusa.org,https://travel.state.gov/content/travel/en/international-travel/International-Travel-Country-Information-Pages/SriLanka.html
128,128,ACSKhartoum@state.gov,https://travel.state.gov/content/travel/en/international-travel/International-Travel-Country-Information-Pages/Sudan.html
129,129,seoulinfoACS@state.gov,https://travel.state.gov/content/travel/en/international-travel/International-Travel-Country-Information-Pages/SouthKorea.html
130,130,BusanConsulate@state.gov,https://travel.state.gov/content/travel/en/international-travel/International-Travel-Country-Information-Pages/SouthKorea.html
131,131,SeoulinfoACS@state.gov,https://travel.state.gov/content/travel/en/international-travel/International-Travel-Country-Information-Pages/SouthKorea.html
132,132,kenya_acs@state.gov,https://travel.state.gov/content/travel/en/international-travel/International-Travel-Country-Information-Pages/Somalia.html
133,133,ACSJohannesburg@state.gov,https://travel.state.gov/content/travel/en/international-travel/International-Travel-Country-Information-Pages/SouthAfrica.html
134,134,americanscapetown@state.gov,https://travel.state.gov/content/travel/en/international-travel/International-Travel-Country-Information-Pages/SouthAfrica.html
135,135,consulardurban@state.gov,https://travel.state.gov/content/travel/en/international-travel/International-Travel-Country-Information-Pages/SouthAfrica.html
136,136,consularjohannesburg@state.gov,https://travel.state.gov/content/travel/en/international-travel/International-Travel-Country-Information-Pages/SouthAfrica.html
137,137,ACSJuba@state.gov,https://travel.state.gov/content/travel/en/international-travel/International-Travel-Country-Information-Pages/SouthSudan.html
139,139,LjubljanaACS@state.gov,https://travel.state.gov/content/travel/en/international-travel/International-Travel-Country-Information-Pages/Slovenia.html
140,140,consulbratislava@state.gov,https://travel.state.gov/content/travel/en/international-travel/International-Travel-Country-Information-Pages/Slovakia.html
141,141,identity@jc.fbi,https://travel.state.gov/content/travel/en/international-travel/International-Travel-Country-Information-Pages/Slovakia.html
142,142,ACSCuracao@state.gov,https://travel.state.gov/content/travel/en/international-travel/International-Travel-Country-Information-Pages/SintMaarten.html
143,143,BridgetownACS@state.gov,https://travel.state.gov/content/travel/en/international-travel/International-Travel-Country-Information-Pages/SintMaarten.html
144,144,immigration@sintmaartengov.org,https://travel.state.gov/content/travel/en/international-travel/International-Travel-Country-Information-Pages/SintMaarten.html
145,145,singaporeacs@state.gov,https://travel.state.gov/content/travel/en/international-travel/International-Travel-Country-Information-Pages/Singapore.html
146,146,ptlconsular@state.gov,https://travel.state.gov/content/travel/en/international-travel/International-Travel-Country-Information-Pages/Seychelles.html
147,147,PTLConsular@state.gov,https://travel.state.gov/content/travel/en/international-travel/International-Travel-Country-Information-Pages/Seychelles.html
148,148,ConAgencySeychelles@state.gov,https://travel.state.gov/content/travel/en/international-travel/International-Travel-Country-Information-Pages/Seychelles.html
149,149,consularfreetown@state.gov,https://travel.state.gov/content/travel/en/international-travel/International-Travel-Country-Information-Pages/SierraLeone.html
150,150,ConsularFreetown@state.gov,https://travel.state.gov/content/travel/en/international-travel/International-Travel-Country-Information-Pages/SierraLeone.html
151,151,belgradeacs@state.gov,https://travel.state.gov/content/travel/en/international-travel/International-Travel-Country-Information-Pages/Serbia.html
152,152,DakarACS@state.gov,https://travel.state.gov/content/travel/en/international-travel/International-Travel-Country-Information-Pages/Senegal.html
153,153,LibrevilleACS@state.gov,https://travel.state.gov/content/travel/en/international-travel/International-Travel-Country-Information-Pages/SaoTomeandPrincipe.html
154,154,librevilleACS@state.gov,https://travel.state.gov/content/travel/en/international-travel/International-Travel-Country-Information-Pages/SaoTomeandPrincipe.html
156,156,AmEmbApia@state.gov,https://travel.state.gov/content/travel/en/international-travel/International-Travel-Country-Information-Pages/Samoa.html
157,157,Apiaconsular@state.gov,https://travel.state.gov/content/travel/en/international-travel/International-Travel-Country-Information-Pages/Samoa.html
158,158,ApiaConsular@state.gov,https://travel.state.gov/content/travel/en/international-travel/International-Travel-Country-Information-Pages/Samoa.html
159,159,Samoa@un.int,https://travel.state.gov/content/travel/en/international-travel/International-Travel-Country-Information-Pages/Samoa.html
161,161,consularkigali@state.gov,https://travel.state.gov/content/travel/en/international-travel/International-Travel-Country-Information-Pages/Rwanda.html
163,163,embassydc@gosl.gov,https://travel.state.gov/content/travel/en/international-travel/International-Travel-Country-Information-Pages/SaintLucia.html
164,164,moscowacs@state.gov,https://travel.state.gov/content/travel/en/international-travel/International-Travel-Country-Information-Pages/RussianFederation.html
165,165,agency@confidesk.com,https://travel.state.gov/content/travel/en/international-travel/International-Travel-Country-Information-Pages/RussianFederation.html
166,166,ACSBucharest@state.gov,https://travel.state.gov/content/travel/en/international-travel/International-Travel-Country-Information-Pages/Romania.html
167,167,BrazzavilleACS@state.gov,https://travel.state.gov/content/travel/en/international-travel/International-Travel-Country-Information-Pages/RepublicoftheCongo.html
168,168,SkopjeACSmailbox@state.gov,https://travel.state.gov/content/travel/en/international-travel/International-Travel-Country-Information-Pages/Macedonia.html
169,169,consularskopje@state.gov,https://travel.state.gov/content/travel/en/international-travel/International-Travel-Country-Information-Pages/Macedonia.html
170,170,ACSDoha@state.gov,https://travel.state.gov/content/travel/en/international-travel/International-Travel-Country-Information-Pages/Qatar.html
171,171,ConsularDoha@state.gov,https://travel.state.gov/content/travel/en/international-travel/International-Travel-Country-Information-Pages/Qatar.html
172,172,ACSWarsaw@state.gov,https://travel.state.gov/content/travel/en/international-travel/International-Travel-Country-Information-Pages/Poland.html
173,173,KrakowACS@state.gov,https://travel.state.gov/content/travel/en/international-travel/International-Travel-Country-Information-Pages/Poland.html
174,174,CAPoz@post.pl,https://travel.state.gov/content/travel/en/international-travel/International-Travel-Country-Information-Pages/Poland.html
175,175,autotour@pzm.pl,https://travel.state.gov/content/travel/en/international-travel/International-Travel-Country-Information-Pages/Poland.html
176,176,conslisbon@state.gov,https://travel.state.gov/content/travel/en/international-travel/International-Travel-Country-Information-Pages/Portugal.html
177,177,ConsPontaDelgada@state.gov,https://travel.state.gov/content/travel/en/international-travel/International-Travel-Country-Information-Pages/Portugal.html
178,178,LimaACS@state.gov,https://travel.state.gov/content/travel/en/international-travel/International-Travel-Country-Information-Pages/Peru.html
179,179,CuscoACS@state.gov,https://travel.state.gov/content/travel/en/international-travel/International-Travel-Country-Information-Pages/Peru.html
180,180,acsinfomanila@state.gov,https://travel.state.gov/content/travel/en/international-travel/International-Travel-Country-Information-Pages/Philippines.html
181,181,ACSInfoManila@state.gov,https://travel.state.gov/content/travel/en/international-travel/International-Travel-Country-Information-Pages/Philippines.html
182,182,ACSInfoCebu@state.gov,https://travel.state.gov/content/travel/en/international-travel/International-Travel-Country-Information-Pages/Philippines.html
183,183,ParaguayACS@state.gov,https://travel.state.gov/content/travel/en/international-travel/International-Travel-Country-Information-Pages/Paraguay.html
184,184,usembassykoror@palaunet.com,https://travel.state.gov/content/travel/en/international-travel/International-Travel-Country-Information-Pages/Palau.html
185,185,USEmbassykoror@palaunet.com,https://travel.state.gov/content/travel/en/international-travel/International-Travel-Country-Information-Pages/Palau.html
186,186,ConsularMuscat@state.gov,https://travel.state.gov/content/travel/en/international-travel/International-Travel-Country-Information-Pages/Oman.html
188,188,visa@pngembassy.org,https://travel.state.gov/content/travel/en/international-travel/International-Travel-Country-Information-Pages/PapuaNewGuinea.html
190,190,ACSIslamabad@state.gov,https://travel.state.gov/content/travel/en/international-travel/International-Travel-Country-Information-Pages/Pakistan.html
191,191,ACSKarachi@state.gov,https://travel.state.gov/content/travel/en/international-travel/International-Travel-Country-Information-Pages/Pakistan.html
192,192,acslahore@state.gov,https://travel.state.gov/content/travel/en/international-travel/International-Travel-Country-Information-Pages/Pakistan.html
193,193,contact@dra.gov,https://travel.state.gov/content/travel/en/international-travel/International-Travel-Country-Information-Pages/Pakistan.html
194,194,osloacs@state.gov,https://travel.state.gov/content/travel/en/international-travel/International-Travel-Country-Information-Pages/Norway.html
195,195,pyongyang@gov.se,https://travel.state.gov/content/travel/en/international-travel/International-Travel-Country-Information-Pages/KoreaDemocraticPeoplesRepublicof.html
196,196,AmCitBeijing@state.gov,https://travel.state.gov/content/travel/en/international-travel/International-Travel-Country-Information-Pages/KoreaDemocraticPeoplesRepublicof.html
197,197,abujaACS@state.gov,https://travel.state.gov/content/travel/en/international-travel/International-Travel-Country-Information-Pages/Nigeria.html
198,198,LagosACS@state.gov,https://travel.state.gov/content/travel/en/international-travel/International-Travel-Country-Information-Pages/Nigeria.html
199,199,AbujaACS@state.gov,https://travel.state.gov/content/travel/en/international-travel/International-Travel-Country-Information-Pages/Nigeria.html
200,200,aucklandacs@state.gov,https://travel.state.gov/content/travel/en/international-travel/International-Travel-Country-Information-Pages/NewZealand.html
201,201,AucklandACS@state.gov,https://travel.state.gov/content/travel/en/international-travel/International-Travel-Country-Information-Pages/NewZealand.html
202,202,Managua@state.gov,https://travel.state.gov/content/travel/en/international-travel/International-Travel-Country-Information-Pages/Nicaragua.html
203,203,ACSManagua@state.gov,https://travel.state.gov/content/travel/en/international-travel/International-Travel-Country-Information-Pages/Nicaragua.html
204,204,emb@embanic.org,https://travel.state.gov/content/travel/en/international-travel/International-Travel-Country-Information-Pages/Nicaragua.html
205,205,enlace@cancilleria.gob,https://travel.state.gov/content/travel/en/international-travel/International-Travel-Country-Information-Pages/Nicaragua.html
206,206,seguridadpublica@policia.gob,https://travel.state.gov/content/travel/en/international-travel/International-Travel-Country-Information-Pages/Nicaragua.html
207,207,managua@state.gov,https://travel.state.gov/content/travel/en/international-travel/International-Travel-Country-Information-Pages/Nicaragua.html
210,210,AmsterdamUSC@state.gov,https://travel.state.gov/content/travel/en/international-travel/International-Travel-Country-Information-Pages/Netherlands.html
211,211,consktm@state.gov,https://travel.state.gov/content/travel/en/international-travel/International-Travel-Country-Information-Pages/Nepal.html
212,212,namuna@ncrc.gov,https://travel.state.gov/content/travel/en/international-travel/International-Travel-Country-Information-Pages/Nepal.html
213,213,consulateniamey@state.gov,https://travel.state.gov/content/travel/en/international-travel/International-Travel-Country-Information-Pages/Niger.html
216,216,consulate@brisbane.gov,https://travel.state.gov/content/travel/en/international-travel/International-Travel-Country-Information-Pages/Nauru.html
217,217,consularmaputo@state.gov,https://travel.state.gov/content/travel/en/international-travel/International-Travel-Country-Information-Pages/Mozambique.html
218,218,MaputoConsular@state.gov,https://travel.state.gov/content/travel/en/international-travel/International-Travel-Country-Information-Pages/Mozambique.html
219,219,consularwindhoek@state.gov,https://travel.state.gov/content/travel/en/international-travel/International-Travel-Country-Information-Pages/Namibia.html
220,220,acscasablanca@state.gov,https://travel.state.gov/content/travel/en/international-travel/International-Travel-Country-Information-Pages/Morocco.html
221,221,PodgoricaACS@state.gov,https://travel.state.gov/content/travel/en/international-travel/International-Travel-Country-Information-Pages/Montenegro.html
223,223,ChisinauACS@state.gov,https://travel.state.gov/content/travel/en/international-travel/International-Travel-Country-Information-Pages/Moldova.html
224,224,ulaanbaatarACS@state.gov,https://travel.state.gov/content/travel/en/international-travel/International-Travel-Country-Information-Pages/Mongolia.html
225,225,UlaanbaatarACS@state.gov,https://travel.state.gov/content/travel/en/international-travel/International-Travel-Country-Information-Pages/Mongolia.html
226,226,monconsul@mongolianembassy.us,https://travel.state.gov/content/travel/en/international-travel/International-Travel-Country-Information-Pages/Mongolia.html
227,227,sanfrancisco@mfa.gov,https://travel.state.gov/content/travel/en/international-travel/International-Travel-Country-Information-Pages/Mongolia.html
228,228,mongolianmission@twcmetrobiz.com,https://travel.state.gov/content/travel/en/international-travel/International-Travel-Country-Information-Pages/Mongolia.html
229,229,KoloniaACS@state.gov,https://travel.state.gov/content/travel/en/international-travel/International-Travel-Country-Information-Pages/Micronesia.html
230,230,ConsularNKC@state.gov,https://travel.state.gov/content/travel/en/international-travel/International-Travel-Country-Information-Pages/Mauritania.html
231,231,ACSMexicoCity@state.gov,https://travel.state.gov/content/travel/en/international-travel/International-Travel-Country-Information-Pages/Mexico.html
232,232,CDJSCS@state.gov,https://travel.state.gov/content/travel/en/international-travel/International-Travel-Country-Information-Pages/Mexico.html
233,233,ACSGDL@state.gov,https://travel.state.gov/content/travel/en/international-travel/International-Travel-Country-Information-Pages/Mexico.html
234,234,HermoACS@state.gov,https://travel.state.gov/content/travel/en/international-travel/International-Travel-Country-Information-Pages/Mexico.html
235,235,MatamorosACS@state.gov,https://travel.state.gov/content/travel/en/international-travel/International-Travel-Country-Information-Pages/Mexico.html
236,236,AskMeridaACS@state.gov,https://travel.state.gov/content/travel/en/international-travel/International-Travel-Country-Information-Pages/Mexico.html
237,237,MonterreyACS@state.gov,https://travel.state.gov/content/travel/en/international-travel/International-Travel-Country-Information-Pages/Mexico.html
238,238,NogalesACS@state.gov,https://travel.state.gov/content/travel/en/international-travel/International-Travel-Country-Information-Pages/Mexico.html
240,240,ACSTijuana@state.gov,https://travel.state.gov/content/travel/en/international-travel/International-Travel-Country-Information-Pages/Mexico.html
241,241,ConAgencyAcapulco@state.gov,https://travel.state.gov/content/travel/en/international-travel/International-Travel-Country-Information-Pages/Mexico.html
242,242,ConAgencyCancun@state.gov,https://travel.state.gov/content/travel/en/international-travel/International-Travel-Country-Information-Pages/Mexico.html
243,243,ConAgencyLosCabos@state.gov,https://travel.state.gov/content/travel/en/international-travel/International-Travel-Country-Information-Pages/Mexico.html
244,244,ConAgencyMazatlan@state.gov,https://travel.state.gov/content/travel/en/international-travel/International-Travel-Country-Information-Pages/Mexico.html
245,245,ConAgencyOaxaca@state.gov,https://travel.state.gov/content/travel/en/international-travel/International-Travel-Country-Information-Pages/Mexico.html
246,246,ConAgencyPlayadelC@state.gov,https://travel.state.gov/content/travel/en/international-travel/International-Travel-Country-Information-Pages/Mexico.html
247,247,ConAgencyPuertoV@state.gov,https://travel.state.gov/content/travel/en/international-travel/International-Travel-Country-Information-Pages/Mexico.html
248,248,ConAgencySanMiguel@state.gov,https://travel.state.gov/content/travel/en/international-travel/International-Travel-Country-Information-Pages/Mexico.html
249,249,contactociudadano@cofepris.gob,https://travel.state.gov/content/travel/en/international-travel/International-Travel-Country-Information-Pages/Mexico.html
251,251,mpf@govmu.org,https://travel.state.gov/content/travel/en/international-travel/International-Travel-Country-Information-Pages/Mauritius.html
252,252,ConsularMalta@state.gov,https://travel.state.gov/content/travel/en/international-travel/International-Travel-Country-Information-Pages/Malta.html
253,253,ConsularBamako@state.gov,https://travel.state.gov/content/travel/en/international-travel/International-Travel-Country-Information-Pages/Mali.html
254,254,Citizeninfo@state.gov,https://travel.state.gov/content/travel/en/international-travel/International-Travel-Country-Information-Pages/France.html.html?wcmmode=disabled
255,255,Citizeninfomarseille@state.gov,https://travel.state.gov/content/travel/en/international-travel/International-Travel-Country-Information-Pages/France.html.html?wcmmode=disabled
256,256,USAStrasbourg@state.gov,https://travel.state.gov/content/travel/en/international-travel/International-Travel-Country-Information-Pages/France.html.html?wcmmode=disabled
257,257,info@monacodc.org,https://travel.state.gov/content/travel/en/international-travel/International-Travel-Country-Information-Pages/France.html.html?wcmmode=disabled
258,258,CitizenInfoMarseille@state.gov,https://travel.state.gov/content/travel/en/international-travel/International-Travel-Country-Information-Pages/France.html.html?wcmmode=disabled
259,259,CitizenInfo@state.gov,https://travel.state.gov/content/travel/en/international-travel/International-Travel-Country-Information-Pages/France.html.html?wcmmode=disabled
260,260,MAJConsular@state.gov,https://travel.state.gov/content/travel/en/international-travel/International-Travel-Country-Information-Pages/MarshallIslands.html
261,261,rmi@gmail.com,https://travel.state.gov/content/travel/en/international-travel/International-Travel-Country-Information-Pages/MarshallIslands.html
263,263,ColomboACS@state.gov,https://travel.state.gov/content/travel/en/international-travel/International-Travel-Country-Information-Pages/Maldives.html
264,264,klacs@state.gov,https://travel.state.gov/content/travel/en/international-travel/International-Travel-Country-Information-Pages/Malaysia.html
265,265,LilongweConsular@state.gov,https://travel.state.gov/content/travel/en/international-travel/International-Travel-Country-Information-Pages/Malawi.html
266,266,LuxembourgConsular@state.gov,https://travel.state.gov/content/travel/en/international-travel/International-Travel-Country-Information-Pages/Luxembourg.html
267,267,consular@mae.etat,https://travel.state.gov/content/travel/en/international-travel/International-Travel-Country-Information-Pages/Luxembourg.html
268,268,cg@mae.etat,https://travel.state.gov/content/travel/en/international-travel/International-Travel-Country-Information-Pages/Luxembourg.html
269,269,consec@state.gov,https://travel.state.gov/content/travel/en/international-travel/International-Travel-Country-Information-Pages/Lithuania.html
270,270,AntanACS@state.gov,https://travel.state.gov/content/travel/en/international-travel/International-Travel-Country-Information-Pages/Madagascar.html
271,271,LibyaACS@state.gov,https://travel.state.gov/content/travel/en/international-travel/International-Travel-Country-Information-Pages/Libya.html
272,272,acshk@state.gov,https://travel.state.gov/content/travel/en/international-travel/International-Travel-Country-Information-Pages/Macau.html
273,273,info@customs.gov,https://travel.state.gov/content/travel/en/international-travel/International-Travel-Country-Information-Pages/Macau.html
274,274,barrierfreemacau@gmail.com,https://travel.state.gov/content/travel/en/international-travel/International-Travel-Country-Information-Pages/Macau.html
275,275,info@fsm.gov,https://travel.state.gov/content/travel/en/international-travel/International-Travel-Country-Information-Pages/Macau.html
276,276,ACShk@state.gov,https://travel.state.gov/content/travel/en/international-travel/International-Travel-Country-Information-Pages/Macau.html
277,277,ACSMonrovia@state.gov,https://travel.state.gov/content/travel/en/international-travel/International-Travel-Country-Information-Pages/Liberia.html
278,278,USConsularMaseru@state.gov,https://travel.state.gov/content/travel/en/international-travel/International-Travel-Country-Information-Pages/Lesotho.html
279,279,BeirutACS@state.gov,https://travel.state.gov/content/travel/en/international-travel/International-Travel-Country-Information-Pages/Lebanon.html
280,280,info@lebanonembassy.org,https://travel.state.gov/content/travel/en/international-travel/International-Travel-Country-Information-Pages/Lebanon.html
281,281,info@lebanonembassyus.org,https://travel.state.gov/content/travel/en/international-travel/International-Travel-Country-Information-Pages/Lebanon.html
282,282,CONSLAO@state.gov,https://travel.state.gov/content/travel/en/international-travel/International-Travel-Country-Information-Pages/Laos.html
283,283,consularbishkek@state.gov,https://travel.state.gov/content/travel/en/international-travel/International-Travel-Country-Information-Pages/Kyrgyzstan.html
284,284,ConsularBishkek@state.gov,https://travel.state.gov/content/travel/en/international-travel/International-Travel-Country-Information-Pages/Kyrgyzstan.html
285,285,kuwaitACS@state.gov,https://travel.state.gov/content/travel/en/international-travel/International-Travel-Country-Information-Pages/Kuwait.html
286,286,KuwaitACS@state.gov,https://travel.state.gov/content/travel/en/international-travel/International-Travel-Country-Information-Pages/Kuwait.html
287,287,minfo@customs.gov,https://travel.state.gov/content/travel/en/international-travel/International-Travel-Country-Information-Pages/Kuwait.html
288,288,riga@state.gov,https://travel.state.gov/content/travel/en/international-travel/International-Travel-Country-Information-Pages/Latvia.html
289,289,PristinaACS@state.gov,https://travel.state.gov/content/travel/en/international-travel/International-Travel-Country-Information-Pages/Kosovo.html
291,291,Nairobi@trade.gov,https://travel.state.gov/content/travel/en/international-travel/International-Travel-Country-Information-Pages/Kenya.html
294,294,kiribaticonsul@aol.com,https://travel.state.gov/content/travel/en/international-travel/International-Travel-Country-Information-Pages/Kiribati.html
295,295,KiribatiConsul@aol.com,https://travel.state.gov/content/travel/en/international-travel/International-Travel-Country-Information-Pages/Kiribati.html
297,297,USAKZ@state.gov,https://travel.state.gov/content/travel/en/international-travel/International-Travel-Country-Information-Pages/Kazakhstan.html
298,298,KingstonACS@state.gov,https://travel.state.gov/content/travel/en/international-travel/International-Travel-Country-Information-Pages/Jamaica.html
299,299,MobayACS@state.gov,https://travel.state.gov/content/travel/en/international-travel/International-Travel-Country-Information-Pages/Jamaica.html
300,300,Tokyoacs@state.gov,https://travel.state.gov/content/travel/en/international-travel/International-Travel-Country-Information-Pages/Japan.html
301,301,TokyoACS@state.gov,https://travel.state.gov/content/travel/en/international-travel/International-Travel-Country-Information-Pages/Japan.html
302,302,AOK@state.gov,https://travel.state.gov/content/travel/en/international-travel/International-Travel-Country-Information-Pages/Japan.html
303,303,NahaACS@state.gov,https://travel.state.gov/content/travel/en/international-travel/International-Travel-Country-Information-Pages/Japan.html
304,304,SapporoACS@state.gov,https://travel.state.gov/content/travel/en/international-travel/International-Travel-Country-Information-Pages/Japan.html
305,305,FukuokaACS@state.gov,https://travel.state.gov/content/travel/en/international-travel/International-Travel-Country-Information-Pages/Japan.html
306,306,atacarnet@uscib.org,https://travel.state.gov/content/travel/en/international-travel/International-Travel-Country-Information-Pages/Japan.html
319,319,ACSDublin@state.gov,https://travel.state.gov/content/travel/en/international-travel/International-Travel-Country-Information-Pages/Ireland.html
320,320,baghdadacs@state.gov,https://travel.state.gov/content/travel/en/international-travel/International-Travel-Country-Information-Pages/Iraq.html
321,321,ErbilACS@state.gov,https://travel.state.gov/content/travel/en/international-travel/International-Travel-Country-Information-Pages/Iraq.html
322,322,BaghdadACS@state.gov,https://travel.state.gov/content/travel/en/international-travel/International-Travel-Country-Information-Pages/Iraq.html
323,323,vertretung@eda.admin,https://travel.state.gov/content/travel/en/international-travel/International-Travel-Country-Information-Pages/Iran.html
324,324,JakartaACS@state.gov,https://travel.state.gov/content/travel/en/international-travel/International-Travel-Country-Information-Pages/Indonesia.html
325,325,SurabayaACS@state.gov,https://travel.state.gov/content/travel/en/international-travel/International-Travel-Country-Information-Pages/Indonesia.html
326,326,CABali@state.gov,https://travel.state.gov/content/travel/en/international-travel/International-Travel-Country-Information-Pages/Indonesia.html
327,327,Sumatra@state.gov,https://travel.state.gov/content/travel/en/international-travel/International-Travel-Country-Information-Pages/Indonesia.html
329,329,budapest@state.gov,https://travel.state.gov/content/travel/en/international-travel/International-Travel-Country-Information-Pages/Hungary.html
330,330,reykjavikconsular@state.gov,https://travel.state.gov/content/travel/en/international-travel/International-Travel-Country-Information-Pages/Iceland.html
331,331,acsnd@state.gov,https://travel.state.gov/content/travel/en/international-travel/International-Travel-Country-Information-Pages/India.html
332,332,mumbaiacs@state.gov,https://travel.state.gov/content/travel/en/international-travel/International-Travel-Country-Information-Pages/India.html
333,333,kolkataACS@state.gov,https://travel.state.gov/content/travel/en/international-travel/International-Travel-Country-Information-Pages/India.html
334,334,chennaics@state.gov,https://travel.state.gov/content/travel/en/international-travel/International-Travel-Country-Information-Pages/India.html
335,335,hydacs@state.gov,https://travel.state.gov/content/travel/en/international-travel/International-Travel-Country-Information-Pages/India.html
337,337,USAHonduras@state.gov,https://travel.state.gov/content/travel/en/international-travel/International-Travel-Country-Information-Pages/Honduras.html
338,338,acspap@state.gov,https://travel.state.gov/content/travel/en/international-travel/International-Travel-Country-Information-Pages/Haiti.html
342,342,acsgeorge@state.gov,https://travel.state.gov/content/travel/en/international-travel/International-Travel-Country-Information-Pages/Guyana.html
343,343,Conconakry@state.gov,https://travel.state.gov/content/travel/en/international-travel/International-Travel-Country-Information-Pages/Guinea.html
344,344,AmCitsGuatemala@state.gov,https://travel.state.gov/content/travel/en/international-travel/International-Travel-Country-Information-Pages/Guatemala.html
345,345,operacionesproatur@inguat.gob,https://travel.state.gov/content/travel/en/international-travel/International-Travel-Country-Information-Pages/Guatemala.html
346,346,asistur@inguat.gob,https://travel.state.gov/content/travel/en/international-travel/International-Travel-Country-Information-Pages/Guatemala.html
348,348,Stgeorgesacs@state.gov,https://travel.state.gov/content/travel/en/international-travel/International-Travel-Country-Information-Pages/Grenada.html
349,349,ACSaccra@state.gov,https://travel.state.gov/content/travel/en/international-travel/International-Travel-Country-Information-Pages/Ghana.html
350,350,ConsularAccra@state.gov,https://travel.state.gov/content/travel/en/international-travel/International-Travel-Country-Information-Pages/Ghana.html
351,351,athensamericancitizenservices@state.gov,https://travel.state.gov/content/travel/en/international-travel/International-Travel-Country-Information-Pages/Greece.html
352,352,usconsulate@state.gov,https://travel.state.gov/content/travel/en/international-travel/International-Travel-Country-Information-Pages/Greece.html
353,353,AthensAmericanPassports@state.gov,https://travel.state.gov/content/travel/en/international-travel/International-Travel-Country-Information-Pages/Greece.html
354,354,relation@eof.gr,https://travel.state.gov/content/travel/en/international-travel/International-Travel-Country-Information-Pages/Greece.html
355,355,AskConsulTbilisi@state.gov,https://travel.state.gov/content/travel/en/international-travel/International-Travel-Country-Information-Pages/Georgia.html
356,356,ACSBerlin@state.gov,https://travel.state.gov/content/travel/en/international-travel/International-Travel-Country-Information-Pages/Germany.html
357,357,FrankfurtPassports@state.gov,https://travel.state.gov/content/travel/en/international-travel/International-Travel-Country-Information-Pages/Germany.html
358,358,GermanyACS@state.gov,https://travel.state.gov/content/travel/en/international-travel/International-Travel-Country-Information-Pages/Germany.html
359,359,ConsMunich@state.gov,https://travel.state.gov/content/travel/en/international-travel/International-Travel-Country-Information-Pages/Germany.html
361,361,usconsul@mail.pf,https://travel.state.gov/content/travel/en/international-travel/International-Travel-Country-Information-Pages/FrenchPolynesia.html
362,362,USConsul@mail.pf,https://travel.state.gov/content/travel/en/international-travel/International-Travel-Country-Information-Pages/FrenchPolynesia.html
365,365,USconsul@mail.pf,https://travel.state.gov/content/travel/en/international-travel/International-Travel-Country-Information-Pages/FrenchPolynesia.html
368,368,HelsinkiACS@state.gov,https://travel.state.gov/content/travel/en/international-travel/International-Travel-Country-Information-Pages/Finland.html
381,381,AddisACS@state.gov,https://travel.state.gov/content/travel/en/international-travel/International-Travel-Country-Information-Pages/Ethiopia.html
382,382,ConsularMbabane@state.gov,https://travel.state.gov/content/travel/en/international-travel/International-Travel-Country-Information-Pages/Eswatini.html
383,383,ConsularAsmara@state.gov,https://travel.state.gov/content/travel/en/international-travel/International-Travel-Country-Information-Pages/Eritrea.html
384,384,ACSTallinn@state.gov,https://travel.state.gov/content/travel/en/international-travel/International-Travel-Country-Information-Pages/Estonia.html
385,385,MalaboConsular@state.gov,https://travel.state.gov/content/travel/en/international-travel/International-Travel-Country-Information-Pages/EquatorialGuinea.html
386,386,consularcairoacs@state.gov,https://travel.state.gov/content/travel/en/international-travel/International-Travel-Country-Information-Pages/Egypt.html
387,387,ConsularCairoACS@state.gov,https://travel.state.gov/content/travel/en/international-travel/International-Travel-Country-Information-Pages/Egypt.html
388,388,ACSSanSal@state.gov,https://travel.state.gov/content/travel/en/international-travel/International-Travel-Country-Information-Pages/ElSalvador.html
389,389,donaciones@medicamentos.gob,https://travel.state.gov/content/travel/en/international-travel/International-Travel-Country-Information-Pages/ElSalvador.html
390,390,ACSQuito@state.gov,https://travel.state.gov/content/travel/en/international-travel/International-Travel-Country-Information-Pages/Ecuador.html
391,391,ACSGuayaquil@state.gov,https://travel.state.gov/content/travel/en/international-travel/International-Travel-Country-Information-Pages/Ecuador.html
393,393,SDOAmericans@state.gov,https://travel.state.gov/content/travel/en/international-travel/International-Travel-Country-Information-Pages/DominicanRepublic.html
394,394,PuertoPlataConsularAgency@state.gov,https://travel.state.gov/content/travel/en/international-travel/International-Travel-Country-Information-Pages/DominicanRepublic.html
395,395,PuntaCanaConsularAgency@state.gov,https://travel.state.gov/content/travel/en/international-travel/International-Travel-Country-Information-Pages/DominicanRepublic.html
396,396,SDOamericans@state.gov,https://travel.state.gov/content/travel/en/international-travel/International-Travel-Country-Information-Pages/DominicanRepublic.html
397,397,copenhagenACS@state.gov,https://travel.state.gov/content/travel/en/international-travel/International-Travel-Country-Information-Pages/Denmark.html
398,398,CopenhagenACS@state.gov,https://travel.state.gov/content/travel/en/international-travel/International-Travel-Country-Information-Pages/Denmark.html
399,399,DjiboutiACS@state.gov,https://travel.state.gov/content/travel/en/international-travel/International-Travel-Country-Information-Pages/Djibouti.html
401,401,ACSKinshasa@state.gov,https://travel.state.gov/content/travel/en/international-travel/International-Travel-Country-Information-Pages/DemocraticRepublicoftheCongoDRC.html
402,402,consularnicosia@state.gov,https://travel.state.gov/content/travel/en/international-travel/International-Travel-Country-Information-Pages/Cyprus.html
403,403,acshavana@state.gov,https://travel.state.gov/content/travel/en/international-travel/International-Travel-Country-Information-Pages/Cuba.html
404,404,ZagrebACS@state.gov,https://travel.state.gov/content/travel/en/international-travel/International-Travel-Country-Information-Pages/Croatia.html
405,405,ACSPrg@state.gov,https://travel.state.gov/content/travel/en/international-travel/International-Travel-Country-Information-Pages/CzechRepublic.html
407,407,AbjAmcit@state.gov,https://travel.state.gov/content/travel/en/international-travel/International-Travel-Country-Information-Pages/CotedvIoire.html
409,409,acssanjose@state.gov,https://travel.state.gov/content/travel/en/international-travel/International-Travel-Country-Information-Pages/CostaRica.html
410,410,ACSSanJose@state.gov,https://travel.state.gov/content/travel/en/international-travel/International-Travel-Country-Information-Pages/CostaRica.html
411,411,contactenos@ict.go,https://travel.state.gov/content/travel/en/international-travel/International-Travel-Country-Information-Pages/CostaRica.html
412,412,drpis@misalud.go,https://travel.state.gov/content/travel/en/international-travel/International-Travel-Country-Information-Pages/CostaRica.html
414,414,AntanVISA@state.gov,https://travel.state.gov/content/travel/en/international-travel/International-Travel-Country-Information-Pages/Comoros.html
415,415,BeijingACS@state.gov,https://travel.state.gov/content/travel/en/international-travel/International-Travel-Country-Information-Pages/China.html
416,416,AmCitChengdu@state.gov,https://travel.state.gov/content/travel/en/international-travel/International-Travel-Country-Information-Pages/China.html
417,417,GuangzhouACS@state.gov,https://travel.state.gov/content/travel/en/international-travel/International-Travel-Country-Information-Pages/China.html
418,418,ShanghaiACS@state.gov,https://travel.state.gov/content/travel/en/international-travel/International-Travel-Country-Information-Pages/China.html
419,419,ShenyangACS@state.gov,https://travel.state.gov/content/travel/en/international-travel/International-Travel-Country-Information-Pages/China.html
420,420,USConsulateWuhan@state.gov,https://travel.state.gov/content/travel/en/international-travel/International-Travel-Country-Information-Pages/China.html
422,422,conagencybarranquilla@state.gov,https://travel.state.gov/content/travel/en/international-travel/International-Travel-Country-Information-Pages/Colombia.html
423,423,SantiagoUSA@state.gov,https://travel.state.gov/content/travel/en/international-travel/International-Travel-Country-Information-Pages/Chile.html
424,424,YaoundeACS@state.gov,https://travel.state.gov/content/travel/en/international-travel/International-Travel-Country-Information-Pages/CentralAfricanRepublic.html
425,425,NdjamenaACS@state.gov,https://travel.state.gov/content/travel/en/international-travel/International-Travel-Country-Information-Pages/Chad.html
427,427,CaymanACS@state.gov,https://travel.state.gov/content/travel/en/international-travel/International-Travel-Country-Information-Pages/CaymanIslands.html
428,428,OttawaACS@state.gov,https://travel.state.gov/content/travel/en/international-travel/International-Travel-Country-Information-Pages/Canada.html
430,430,TorontoPassport@state.gov,https://travel.state.gov/content/travel/en/international-travel/International-Travel-Country-Information-Pages/Canada.html
431,431,vancouverACS@state.gov,https://travel.state.gov/content/travel/en/international-travel/International-Travel-Country-Information-Pages/Canada.html
432,432,quebecacs@state.gov,https://travel.state.gov/content/travel/en/international-travel/International-Travel-Country-Information-Pages/Canada.html
434,434,ACSPhnompenh@state.gov,https://travel.state.gov/content/travel/en/international-travel/International-Travel-Country-Information-Pages/Cambodia.html
435,435,praiaconsular@state.gov,https://travel.state.gov/content/travel/en/international-travel/International-Travel-Country-Information-Pages/CaboVerde.html
436,436,ACSRangoon@state.gov,https://travel.state.gov/content/travel/en/international-travel/International-Travel-Country-Information-Pages/Burma.html
437,437,bujumburac@state.gov,https://travel.state.gov/content/travel/en/international-travel/International-Travel-Country-Information-Pages/Burundi.html
438,438,ACS_Sofia@state.gov,https://travel.state.gov/content/travel/en/international-travel/International-Travel-Country-Information-Pages/Bulgaria.html
439,439,anticorruption@justice.government,https://travel.state.gov/content/travel/en/international-travel/International-Travel-Country-Information-Pages/Bulgaria.html
440,440,consularouaga@state.gov,https://travel.state.gov/content/travel/en/international-travel/International-Travel-Country-Information-Pages/BurkinaFaso.html
441,441,ConsularBrunei@state.gov,https://travel.state.gov/content/travel/en/international-travel/International-Travel-Country-Information-Pages/Brunei.html
443,443,consulargaborone@state.gov,https://travel.state.gov/content/travel/en/international-travel/International-Travel-Country-Information-Pages/Botswana.html
444,444,BrasiliaACS@state.gov,https://travel.state.gov/content/travel/en/international-travel/International-Travel-Country-Information-Pages/Brazil.html
445,445,PortoAlegreACS@state.gov,https://travel.state.gov/content/travel/en/international-travel/International-Travel-Country-Information-Pages/Brazil.html
446,446,RecifeACS@state.gov,https://travel.state.gov/content/travel/en/international-travel/International-Travel-Country-Information-Pages/Brazil.html
447,447,acsrio@state.gov,https://travel.state.gov/content/travel/en/international-travel/International-Travel-Country-Information-Pages/Brazil.html
448,448,SaopauloACS@state.gov,https://travel.state.gov/content/travel/en/international-travel/International-Travel-Country-Information-Pages/Brazil.html
449,449,HamiltonConsulate@state.gov,https://travel.state.gov/content/travel/en/international-travel/International-Travel-Country-Information-Pages/Bermuda.html
450,450,ConsularLaPazACS@state.gov,https://travel.state.gov/content/travel/en/international-travel/International-Travel-Country-Information-Pages/Bolivia.html
451,451,ConsularSantaCruz@state.gov,https://travel.state.gov/content/travel/en/international-travel/International-Travel-Country-Information-Pages/Bolivia.html
452,452,SarajevoACS@state.gov,https://travel.state.gov/content/travel/en/international-travel/International-Travel-Country-Information-Pages/BosniaandHerzegovina.html
454,454,info@tourism.gov,https://travel.state.gov/content/travel/en/international-travel/International-Travel-Country-Information-Pages/Bhutan.html
455,455,ACSnd@state.gov,https://travel.state.gov/content/travel/en/international-travel/International-Travel-Country-Information-Pages/Bhutan.html
457,457,ConsularCotonou@state.gov,https://travel.state.gov/content/travel/en/international-travel/International-Travel-Country-Information-Pages/Benin.html
458,458,ACSBelize@state.gov,https://travel.state.gov/content/travel/en/international-travel/International-Travel-Country-Information-Pages/Belize.html
459,459,cusnet@btl.net,https://travel.state.gov/content/travel/en/international-travel/International-Travel-Country-Information-Pages/Belize.html
461,461,mailtomailtowashington@foreign.gov,https://travel.state.gov/content/travel/en/international-travel/International-Travel-Country-Information-Pages/Barbados.html
462,462,ManamaConsular@state.gov,https://travel.state.gov/content/travel/en/international-travel/International-Travel-Country-Information-Pages/Bahrain.html
463,463,DhakaACS@state.gov,https://travel.state.gov/content/travel/en/international-travel/International-Travel-Country-Information-Pages/Bangladesh.html
464,464,UScitizenbrussels@state.gov,https://travel.state.gov/content/travel/en/international-travel/International-Travel-Country-Information-Pages/Belgium.html
465,465,victimes@just.fgov,https://travel.state.gov/content/travel/en/international-travel/International-Travel-Country-Information-Pages/Belgium.html
466,466,slachtoffers@just.fgov,https://travel.state.gov/content/travel/en/international-travel/International-Travel-Country-Information-Pages/Belgium.html
467,467,ConsularBaku@state.gov,https://travel.state.gov/content/travel/en/international-travel/International-Travel-Country-Information-Pages/Azerbaijan.html
468,468,office@scfwca.gov,https://travel.state.gov/content/travel/en/international-travel/International-Travel-Country-Information-Pages/Azerbaijan.html
469,469,ConsularMinsk@state.gov,https://travel.state.gov/content/travel/en/international-travel/International-Travel-Country-Information-Pages/Belarus.html
470,470,embassy@usembassy.at,https://travel.state.gov/content/travel/en/international-travel/International-Travel-Country-Information-Pages/Austria.html
471,471,ConsulateVienna@state.gov,https://travel.state.gov/content/travel/en/international-travel/International-Travel-Country-Information-Pages/Austria.html
472,472,SydneyACS@state.gov,https://travel.state.gov/content/travel/en/international-travel/International-Travel-Country-Information-Pages/Australia.html
473,473,MelbourneACS@state.gov,https://travel.state.gov/content/travel/en/international-travel/International-Travel-Country-Information-Pages/Australia.html
474,474,PerthACS@state.gov,https://travel.state.gov/content/travel/en/international-travel/International-Travel-Country-Information-Pages/Australia.html
476,476,ACSyerevan@state.gov,https://travel.state.gov/content/travel/en/international-travel/International-Travel-Country-Information-Pages/Armenia.html
477,477,ACSYerevan@state.gov,https://travel.state.gov/content/travel/en/international-travel/International-Travel-Country-Information-Pages/Armenia.html
481,481,Antarctica@state.gov,https://travel.state.gov/content/travel/en/international-travel/International-Travel-Country-Information-Pages/Antarctica.html
482,482,consularluanda@state.gov,https://travel.state.gov/content/travel/en/international-travel/International-Travel-Country-Information-Pages/Angola.html
483,483,ACSAlgiers@state.gov,https://travel.state.gov/content/travel/en/international-travel/International-Travel-Country-Information-Pages/Algeria.html
484,484,ACSTirana@state.gov,https://travel.state.gov/content/travel/en/international-travel/International-Travel-Country-Information-Pages/Albania.html
486,486,policia@andorra.ad,https://travel.state.gov/content/travel/en/international-travel/International-Travel-Country-Information-Pages/Andorra.html
